annee;surf_ech;surf_mult;surf_trait;nb_mean;nb_icinf;nb_icsup;pds_mean;pds_icinf;pds_icsup;abd_mean;abd_icinf;abd_icsup;bio_mean;bio_icinf;bio_icsup;nb_mean_0;nb_icinf_0;nb_icsup_0;pds_mean_0;pds_icinf_0;pds_icsup_0
1984;76047;116115;0.02353;153.6082;115.7568;191.4596;78.5632996;60.9366116;96.1899877;758032403;571241671;944823135;387697556;300712617;474682496;225.4889;169.925;281.0528;109.84087;85.1966563;134.4850838
1985;90761;116115;0.02353;89.979;68.2382;111.7198;47.9047461;36.571351;59.2381411;444032265;336744679;551319851;236402405;180473878;292330931;114.24;86.6372;141.8428;60.8388516;46.4454814;75.2322217
1986;92579;116115;0.02353;115.9358;94.544;137.3276;58.3407759;45.7237047;70.957847;572125189;466559673;677690311;287902574;225639308;350165841;145.1662;118.3809;171.9514;73.0776551;57.2735119;88.8817983
1987;96489;116115;0.02353;273.3873;25.6455;521.129;104.0644724;32.8135109;175.3154339;1349123412;126556442;2571689970;513541842;161929527;865154157;327.2697;30.7;623.8393;124.5058705;39.2590732;209.7526678
1988;98307;116115;0.02353;224.3092;163.5807;285.0378;77.3077356;58.9799216;95.6355496;1106930891;807245314;1406616887;381501545;291056658;471946431;264.9323;193.2057;336.659;91.3061197;69.6596238;112.9526155
1989;90816;116115;0.02353;189.2964;118.53;260.0628;69.0555132;47.4506204;90.660406;934147949;584927040;1283369245;340778122;234161366;447394878;241.6717;151.3254;332.0181;88.1870723;60.5966287;115.7775159
1990;95076;116115;0.02353;225.1003;114.1331;336.0677;99.6828958;34.0281159;165.3376757;1110834806;563228810;1658441205;491919449;167923413;815915486;274.8643;139.365;410.3637;121.715405;41.5492134;201.8815966
1991;107033;116115;0.02353;99.4197;59.3172;139.5222;46.0128751;23.7726197;68.2531304;490620557;292721315;688520254;227066319;117314148;336818489;107.7867;64.3093;151.2642;49.8767748;25.7689092;73.9846403
1992;112068;116115;0.02353;74.968;41.9208;108.0151;32.7579581;16.8826688;48.6332475;369955395;206872603;533037711;161655383;83313322;239997445;77.6614;43.4269;111.8958;33.9343238;17.4889396;50.3797081
1993;111282;116115;0.02353;47.8051;0;99.5054;20.435214;0;41.9111446;235910648;0;491043382;100844574;0;206824922;49.8795;0;103.8232;21.3215283;0;43.7289111
1994;113323;116115;0.02353;23.2882;12.4348;34.1417;11.9688987;6.5728348;17.3649625;114923856;61364004;168483707;59064637;32435909;85693365;23.8399;12.7294;34.9504;12.2508499;6.727671;17.7740287
1995;113412;116115;0.02353;28.2058;20.7249;35.6867;15.6858359;11.8027148;19.5689569;139191293;102274327;176108259;77407139;58244546;96569732;28.5162;20.953;36.0794;15.7946635;11.8846015;19.7047254
1996;108741;116115;0.02353;22.1347;11.0218;33.2475;12.5542618;7.3355384;17.7729852;109231126;54390954;164071297;61953312;36199731;87706893;23.635;11.7689;35.5011;13.4050435;7.8326558;18.9774312
1997;104073;116115;0.02353;20.3332;13.4667;27.1998;11.479111;8.0700347;14.8881874;100341187;66455945;134226872;56647612;39824355;73470869;22.6858;15.0248;30.3469;12.8072267;9.0037254;16.610728
1998;111416;116115;0.02353;9.6352;5.5638;13.7067;5.6979792;3.2224651;8.1734934;47548087;27456339;67640308;28118633;15902360;40334907;10.0415;5.7984;14.2847;5.938291;3.3583723;8.5182098
1999;108868;116115;0.02353;16.1136;5.889;26.3382;10.0648037;4.1262425;16.0033648;79517882;29061213;129975014;49668227;20362359;78974094;17.1862;6.281;28.0915;10.7348233;4.4009288;17.0687178
2000;109537;116115;0.02353;16.6245;12.3309;20.9181;10.3331059;7.5565949;13.109617;82039178;60850988;103227368;50992256;37290610;64693903;17.6227;13.0713;22.1741;10.9535597;8.0103324;13.896787
2001;96335;116115;0.02353;13.767;9.6253;17.9086;9.060689;6.2346666;11.8867114;67937886;47499421;88376352;44713079;30767101;58659056;16.4908;11.5297;21.4519;10.8728945;7.4816465;14.2641425
2002;103963;116115;0.02353;24.8471;0;120.7173;15.8192869;0;75.4311997;122616566;0;595720978;78065699;0;372241134;27.7009;0;134.5822;17.6456673;0;84.13994
2003;104992;116115;0.02353;49.841;0;205.5018;22.0300193;0;76.608958;245957698;0;1014119173;108714688;0;378053187;55.0645;0;227.0389;24.3203356;0;84.573488
2004;91565;116115;0.02353;7.9889;4.0772;11.9006;5.1622576;2.4213702;7.9031451;39423968;20120377;58727558;25474931;11949082;39000781;5.5459;2.8304;8.2614;3.565111;1.6722245;5.4579976
2005;113680;116115;0.02353;14.6814;11.1849;18.1778;9.3457532;7.3198433;11.3716633;72450401;55195497;89704822;46119826;36122278;56117374;14.9957;11.4243;18.567;9.5458201;7.476541;11.6150993
2006;116115;116115;0.02353;7.0322;5.26;8.8045;5.1403111;3.7110579;6.5695643;34702972;25957401;43449037;25366629;18313489;32419769;7.0322;5.26;8.8045;5.1403111;3.7110579;6.5695643
2007;115350;116115;0.02353;8.3284;6.6332;10.0234;5.5555407;4.3969596;6.7141218;41099130;32733803;49463967;27415722;21698306;33133138;8.3836;6.6772;10.0899;5.5923786;4.4261151;6.7586421
2008;116115;116115;0.02353;41.4425;0;131.75;18.452125;0;49.0994584;204512436;0;650165725;91058342;0;242298123;41.4425;0;131.7499;18.452125;0;49.0994583
2009;111584;116115;0.02353;3.2767;2.2252;4.3281;2.4038379;1.6003168;3.2073592;16170165;10981182;21358673;11862563;7897312;15827814;3.4098;2.3156;4.5039;2.5014464;1.6652981;3.3375948
2010;102166;116115;0.02353;35.5075;0;164.7661;14.5208016;0;59.7969817;175224094;0;813094803;71657878;0;295088722;37.5508;0;174.2475;14.6726348;0;60.422234
2011;115350;116115;0.02353;9.7436;6.2641;13.2231;6.9111811;4.3476209;9.4747414;48083382;30912531;65253742;34105595;21454827;46756362;9.8083;6.3057;13.3108;6.9570081;4.3764493;9.5375669
2012;116115;116115;0.02353;10.8771;8.0206;13.7334;8.0155518;5.7953648;10.2357386;53676580;39580253;67772412;39555490;28599216;50511764;10.8771;8.0206;13.7335;8.0155518;5.7953648;10.2357387
2013;108744;116115;0.02353;16.3961;3.4668;29.3255;11.2085847;1.675913;20.7412563;80912239;17107899;144716580;55312607;8270368;102354845;17.5035;3.7009;31.3061;11.9646449;1.7889595;22.1403302
2014;116115;116115;0.02353;17.8498;8.4692;27.2306;12.5875145;8.7638726;16.4111564;88086141;41794258;134378518;62117409;43248336;80986482;17.8498;8.4692;27.2305;12.5875145;8.7638726;16.4111564
2015;116115;116115;0.02353;17.5298;8.3277;26.7319;10.9109541;8.7816338;13.0402743;86506734;41095855;131917612;53843846;43335985;64351707;17.5298;8.3277;26.7319;10.9109541;8.7816338;13.0402743
2016;115278;116115;0.02353;35.9462;22.6132;49.2792;12.4000204;8.4304586;16.3695821;177388795;111592355;243185236;61192155;41602990;80781319;36.2041;22.7754;49.6328;12.4891575;8.4910607;16.4872543
2017;114963;116115;0.02353;410.9452;179.7071;642.1834;70.7177645;32.1804649;109.2550641;2027950113;886826494;3169074220;348981071;158805545;539156598;415.0638;181.5082;648.6195;71.4263492;32.5029098;110.3497885
2018;113344;116115;0.02353;1519.5305;1162.9254;1876.1356;270.3411053;209.3756751;331.3065357;7498644506;5738854455;9258434557;1334090935;1033236103;1634945767;1554.6796;1189.8257;1919.5335;276.4353297;214.0955727;338.7750868
2019;90487;116115;0.02353;3495.6535;2269.423;4721.8839;616.6438902;406.8398409;826.4479394;17250501380;11199246257;23301756049;3043040839;2007690777;4078390901;3805.1257;2470.3363;5139.915;687.2368696;453.4145933;921.0591458
2020;107921;116115;0.02353;2176.8092;415.4955;3938.1228;407.8484089;78.1718838;737.524934;10742211735;2050405154;19434018315;2012667901;385765980;3639569822;2329.2026;444.5834;4213.8218;436.396485;83.6436641;789.1493059
2021;106032;116115;0.02353;2617.7835;1936.8189;3298.7483;531.340556;396.7783108;665.9028011;12918351026;9557897421;16278805156;2622082270;1958038704;3286125835;2464.8654;1823.6794;3106.0515;506.785779;378.4420426;635.1295154
2022;116115;116115;0.02353;2100.6295;1440.3337;2760.9253;415.6966952;292.0176523;539.3757381;10366276812;7107820697;13624732928;2051397963;1441061293;2661734633;2100.6295;1440.3337;2760.9253;415.6966952;292.0176523;539.3757381
2023;95114;116115;0.02353;2270.8353;1722.857;2818.8137;457.6543683;347.318356;567.9903806;11206216083;8502028711;13910403456;2258452496;1713961588;2802943403;2376.123;1802.7375;2949.5085;475.8496409;361.1269256;590.5723563
