annee;surf_ech;surf_mult;surf_trait;nb_mean;nb_icinf;nb_icsup;pds_mean;pds_icinf;pds_icsup;abd_mean;abd_icinf;abd_icsup;bio_mean;bio_icinf;bio_icsup;nb_mean_0;nb_icinf_0;nb_icsup_0;pds_mean_0;pds_icinf_0;pds_icsup_0
1984;76047;116115;0.02353;88.3892;25.6083;151.1701;46.0320277;10.3120414;81.752014;436186933;126372909;746000621;227160834;50888306;403433361;129.9774;37.6573;222.2974;65.8847878;14.7594336;117.010142
1985;90761;116115;0.02353;48.3087;6.3963;90.221;23.2840752;6.8129006;39.7552499;238395770;31564871;445226669;114903258;33620595;196185920;61.1637;8.0984;114.229;29.4458882;8.6158418;50.2759347
1986;92579;116115;0.02353;55.038;24.4754;85.6006;25.1214987;12.4962146;37.7467827;271603672;120782251;422425487;123970654;61666858;186274450;68.9896;30.6797;107.2996;31.4814171;15.6598358;47.3029983
1987;96489;116115;0.02353;65.9443;33.5546;98.3341;23.4503539;13.8188483;33.0818595;325424829;165586512;485263557;115723817;68193848;163253786;79.2531;40.3265;118.1798;28.1594573;16.5938335;39.7250811
1988;98307;116115;0.02353;181.966;131.8577;232.0743;67.7724964;49.8109289;85.7340639;897973663;650697299;1145250028;334446636;245809118;423084153;214.7379;155.6052;273.8706;79.9417578;58.7550028;101.1285128
1989;90816;116115;0.02353;212.5594;126.1411;298.9777;74.3084074;48.3894557;100.2273592;1048947121;622486780;1475407854;366700331;238794371;494606291;267.8564;158.9566;376.7563;93.0016092;60.5624236;125.4407949
1990;95076;116115;0.02353;143.3419;108.011;178.6729;55.7127714;42.5052746;68.9202682;707369773;533017151;881722802;274933785;209756861;340110709;173.7868;130.9518;216.6219;67.3598009;51.3912118;83.32839
1991;107033;116115;0.02353;90.6326;49.4898;131.7754;38.3696444;24.1789065;52.5603822;447257717;244224300;650291135;189348174;119319109;259377239;97.4445;53.2094;141.6796;41.1173469;25.9103909;56.3243028
1992;112068;116115;0.02353;97.2011;15.0543;179.3478;42.6944178;4.6425148;80.7463206;479672103;74290368;885053360;210690252;22910082;398470422;100.4162;15.5522;185.2801;44.0884476;4.7940991;83.382796
1993;111282;116115;0.02353;56.8372;0;218.2017;21.3012126;0;70.4846682;280482539;0;1076791016;105118142;0;347830778;59.1945;0;227.2516;22.1518058;0;73.2992394
1994;113323;116115;0.02353;27.6005;0;86.499;14.5720399;0;44.8796145;136204093;0;426858772;71910730;0;221473855;28.2187;0;88.4364;14.8995391;0;45.888261
1995;113412;116115;0.02353;4.1048;1.4541;6.7554;2.1889536;0.8871345;3.4907728;20256468;7175885;33337052;10802142;4377870;17226416;4.1973;1.4869;6.9077;2.2374114;0.9067734;3.5680495
1996;108741;116115;0.02353;3.718;1.1263;6.3097;1.9417465;0.6853775;3.1981156;18347844;5558157;31137532;9582214;3382230;15782199;3.9012;1.1818;6.6206;2.0275557;0.7156655;3.339446
1997;104073;116115;0.02353;10.2013;0;22.7557;5.2852913;0;11.5023909;50341576;0;112295642;26082083;0;56762494;11.381;0;25.3873;5.8963335;0;12.8322034
1998;111416;116115;0.02353;18.6122;0;69.6402;7.8540981;0;26.9900598;91848212;0;343663566;38758742;0;133191710;19.3967;0;72.5756;8.1850348;0;28.1273006
1999;108868;116115;0.02353;4.9664;0;11.7459;2.5532163;0;5.3761661;24508239;0;57964365;12599722;0;26530536;5.2964;0;12.5265;2.7228057;0;5.7332611
2000;109537;116115;0.02353;6.1171;3.435;8.7992;3.5722879;2.1695067;4.975069;30186719;16951340;43422562;17628680;10706175;24551185;6.4842;3.6412;9.3273;3.7866346;2.2996828;5.2735863
2001;96335;116115;0.02353;7.2917;0;15.4217;4.2269256;0;9.0541568;35983211;0;76103798;20859215;0;44680843;8.5423;0;18.0668;4.9831145;0;10.6739281
2002;103963;116115;0.02353;5.5639;0;25.0861;2.8029698;0;7.9540663;27457210;0;123795918;13832216;0;39252069;6.1771;0;27.8506;3.1061061;0;8.8142846
2003;104992;116115;0.02353;34.9198;0;137.261;14.4849597;0;49.3053657;172323659;0;677361550;71481003;0;243314243;38.5238;0;151.4275;15.9432118;0;54.2691113
2004;91565;116115;0.02353;5.5918;0.3192;10.8646;2.4960663;0.5673709;4.4247618;27594863;1575141;53615026;12317695;2799886;21835505;6.2753;0.3582;12.1925;2.6968508;0.6130104;4.7806913
2005;113680;116115;0.02353;7.1571;4.1197;10.1945;3.8840082;2.2596477;5.5083686;35318921;20329880;50308445;19166971;11151007;27182935;7.31;4.2077;10.4124;3.9670079;2.3079355;5.6260802
2006;116115;116115;0.02353;15.8124;5.3771;26.2477;6.6545377;2.6196698;10.6894057;78031812;26535179;129528446;32839100;12927659;52750540;15.8124;5.3771;26.2477;6.6545377;2.6196698;10.6894056
2007;115350;116115;0.02353;5.6841;3.2429;8.1253;3.4898344;1.7496986;5.2299701;28049909;16003307;40097001;17221785;8634488;25809082;5.7217;3.2644;8.1791;3.512975;1.7613006;5.2646493
2008;116115;116115;0.02353;21.0034;0;46.1785;9.940331;0;21.5266459;103648691;0;227883615;49053973;0;106230620;21.0034;0;46.1784;9.940331;0;21.526646
2009;111584;116115;0.02353;6.4323;1.922;10.9425;3.2099531;1.4690045;4.9509017;31742208;9484771;53999645;15840615;7249307;24431923;6.6933;2;11.3866;3.3402379;1.5286281;5.1518476
2010;102166;116115;0.02353;6.8284;2.0371;11.6195;3.8636664;1.0684795;6.6588533;33697001;10052857;57340655;19066588;5272778;32860396;6.89;2.0555;11.7244;3.7951379;1.0495282;6.5407475
2011;115350;116115;0.02353;9.6731;4.314;15.0321;5.0925058;2.727714;7.4572976;47735037;21288889;74181184;25130717;13460840;36800594;9.7372;4.3426;15.1318;5.1262734;2.745801;7.5067458
2012;116115;116115;0.02353;8.9769;0;20.4252;4.3773387;0;9.6423419;44299474;0;100795379;21601480;0;47583444;8.9769;0;20.4253;4.3773387;0;9.6423418
2013;108744;116115;0.02353;17.8401;0;50.9746;8.7580904;0;22.4889713;88038000;0;251551406;43219802;0;110979544;19.0476;0;54.4248;9.350339;0;24.0097437
2014;116115;116115;0.02353;14.9592;0;37.4735;6.9618204;0;17.5861806;73821404;0;184925597;34355491;0;86785042;14.9592;0;37.4734;6.9618204;0;17.5861805
2015;116115;116115;0.02353;15.9221;9.4431;22.4009;7.1611883;4.6090257;9.7133509;78572836;46600081;110545098;35339341;22744819;47933863;15.9221;9.4431;22.401;7.1611883;4.6090257;9.7133509
2016;115278;116115;0.02353;16.0874;9.335;22.8397;6.9129439;4.2274796;9.5984082;79388717;46066897;112710537;34114293;20861948;47366638;16.2028;9.402;23.0036;6.962727;4.2579235;9.6675305
2017;114963;116115;0.02353;29.5471;16.3982;42.6958;11.2514952;7.7334059;14.7695845;145810129;80922565;210697205;55524364;38163145;72885582;29.8422;16.562;43.1223;11.3639122;7.8106726;14.9171517
2018;113344;116115;0.02353;24.2251;12.0671;36.383;8.6160074;4.5346827;12.6973322;119547159;59549271;179544562;42518645;22377947;62659342;24.676;12.2917;37.0602;8.7504006;4.605415;12.8953862
2019;90487;116115;0.02353;10.195;2.8143;17.5756;3.558173;1.7321053;5.3842406;50310481;13888018;86732943;17559025;8547668;26570383;12.4519;3.4373;21.4665;4.276983;2.0820193;6.4719466
2020;107921;116115;0.02353;35.038;0.9835;69.0926;11.5323972;0;25.4764415;172907084;4853191;340960977;56910571;0;125722241;37.6654;1.0572;74.2736;12.3975317;0;27.3876269
2021;106032;116115;0.02353;104.6792;28.3021;181.0563;31.4126797;7.491167;55.3341924;516575464;139666625;893484302;155016645;36967734;273065557;112.7258;30.4777;194.9739;33.7858989;8.0571226;59.5146753
2022;116115;116115;0.02353;45.7326;21.9566;69.5086;12.087548;6.4300136;17.7450823;225683248;108352396;343014100;59650152;31731108;87569197;45.7326;21.9566;69.5086;12.087548;6.4300136;17.7450824
2023;95114;116115;0.02353;42.9761;8.4859;77.4664;12.5234226;1.3382938;23.7085513;212080393;41876465;382284321;61801125;6604270;116997981;52.2877;10.3245;94.2509;15.2261826;1.6271196;28.8252456
